<?xml version="1.0" encoding="utf-8"?>
<!-- Generator: Adobe Illustrator 17.0.0, SVG Export Plug-In . SVG Version: 6.00 Build 0)  -->
<!DOCTYPE svg PUBLIC "-//W3C//DTD SVG 1.1//EN" "http://www.w3.org/Graphics/SVG/1.1/DTD/svg11.dtd">
<svg version="1.1" id="Layer_1" xmlns="http://www.w3.org/2000/svg" xmlns:xlink="http://www.w3.org/1999/xlink" x="0px" y="0px"
	 width="40px" height="40px" viewBox="0 0 40 40" enable-background="new 0 0 40 40" xml:space="preserve">
<g id="Layer_2">
	<g>
		<path fill="#F6F6F6" d="M22.8,20.1c-1.6,1.1-4.3,1.1-5.9,0.1l-3.3-2.2c-1.2-0.8-0.8-2.1,0.7-2.8l3.4-1.6c1.3-0.6,3.3-0.6,4.5,0
			l3.3,1.5c1.5,0.7,1.8,1.9,0.6,2.8L22.8,20.1z"/>
	</g>
</g>
</svg>
