<svg version="1.1" id="Layer_21" xmlns="http://www.w3.org/2000/svg" xmlns:xlink="http://www.w3.org/1999/xlink" x="0px" y="0px"
	 width="35px" height="35px" viewBox="0 0 35 35" enable-background="new 0 0 35 35" xml:space="preserve">
<path fill="#808080" d="M12.076,9.517h10.944c0,0,0.708-0.057,0.708,0.878c0,0.936,0,14.855,0,14.855s-0.284,0.652-1.048,0
	c-0.765-0.652-4.054-3.685-4.054-3.685s-1.247-0.709-2.155,0.056c-0.907,0.766-4.111,3.742-4.111,3.742s-0.991,0.595-0.991-0.255
	c0-0.851,0-15.054,0-15.054S11.425,9.517,12.076,9.517z"/>
<circle fill="none" stroke="#808080" stroke-miterlimit="10" cx="17.547" cy="17.541" r="16.749"/>
</svg>
