<svg version="1.1" id="Layer_2" xmlns="http://www.w3.org/2000/svg" xmlns:xlink="http://www.w3.org/1999/xlink" x="0px" y="0px"
	 width="35px" height="35px" viewBox="0 0 35 35" enable-background="new 0 0 35 35" xml:space="preserve">
<g>
	
		<rect x="9.652" y="16.983" transform="matrix(0.7071 0.7071 -0.7071 0.7071 17.5431 -7.2701)" fill="silver" width="15.791" height="1.116"/>
	
		<rect x="16.989" y="9.646" transform="matrix(0.7071 0.7071 -0.7071 0.7071 17.5431 -7.2701)" fill="silver" width="1.116" height="15.791"/>
</g>
</svg>
