<svg version="1.1" id="Layer_2" xmlns="http://www.w3.org/2000/svg" xmlns:xlink="http://www.w3.org/1999/xlink" x="0px" y="0px"
	 width="35px" height="35px" viewBox="0 0 35 35" enable-background="new 0 0 35 35" xml:space="preserve">
<circle fill="none" stroke="#808080" stroke-miterlimit="10" cx="17.5" cy="17.5" r="16.833"/>
<path fill="#808080" d="M27.413,24.665H8.335V12.321h19.077V24.665z M9.551,12.321h4.656l-1.088-1.753c0,0-2.358,0-2.6,0
	L9.551,12.321z"/>
</svg>
