<svg version="1.1" id="Layer_15" xmlns="http://www.w3.org/2000/svg" xmlns:xlink="http://www.w3.org/1999/xlink" x="0px" y="0px"
	 width="35px" height="35px" viewBox="0 0 35 35" enable-background="new 0 0 35 35" xml:space="preserve">
<path fill="#808080" d="M26.48,9.268H8.614c-0.309,0-0.558,0.25-0.558,0.558c0,0.309,0.25,0.558,0.558,0.558h1.525l2.904,15.431
	h9.069l2.904-15.431h1.463c0.309,0,0.558-0.25,0.558-0.558C27.039,9.517,26.789,9.268,26.48,9.268z M13.567,10.384h2.941
	l0.653,0.653l-1.981,1.981l-2.123-2.123L13.567,10.384z M12.661,10.5l-0.116-0.116h0.232L12.661,10.5z M17.297,10.384h0.516
	l-0.258,0.258L17.297,10.384z M17.594,16.223l2.124,2.124l-2.004,2.004l-2.124-2.124L17.594,16.223z M15.196,17.832l-2.021-2.021
	l2.004-2.004l2.021,2.021L15.196,17.832z M17.989,15.828l1.981-1.981l2.124,2.124l-1.981,1.981L17.989,15.828z M17.594,15.433
	l-2.021-2.021l1.981-1.981l2.021,2.021L17.594,15.433z M14.784,13.413l-2.004,2.004l-1.036-1.036l-0.345-1.83l1.262-1.261
	L14.784,13.413z M12.385,15.811l-0.313,0.313l-0.145-0.772L12.385,15.811z M12.78,16.206l2.021,2.021l-1.964,1.964l-0.64-3.402
	L12.78,16.206z M15.196,18.621l2.124,2.124l-2.214,2.214l-2.124-2.124L15.196,18.621z M17.715,21.14l1.947,1.947l-1.89,1.89H17.07
	l0.027-0.027l-1.596-1.596L17.715,21.14z M20.057,22.693l-1.947-1.947l2.004-2.004l1.946,1.946L20.057,22.693z M22.325,20.164
	l-1.817-1.817l1.981-1.981l0.463,0.462L22.325,20.164z M22.884,15.971l0.283-0.283l-0.089,0.476L22.884,15.971z M23.35,14.715
	l-0.861,0.861l-2.124-2.124l2.147-2.147l1.245,1.246L23.35,14.715z M19.97,13.057l-2.021-2.021l0.653-0.653h2.988l0.527,0.526
	L19.97,13.057z M22.38,10.384h0.263l-0.131,0.131L22.38,10.384z M11.756,10.384l0.511,0.511l-0.992,0.991l-0.283-1.502H11.756z
	 M13.137,21.78l3.198,3.197h-2.596L13.137,21.78z M18.561,24.978l3.52-3.521l-0.662,3.521H18.561z M23.882,11.886l-0.975-0.976
	l0.526-0.526h0.732L23.882,11.886z"/>
<circle fill="none" stroke="#808080" stroke-miterlimit="10" cx="17.547" cy="17.541" r="16.749"/>
<circle fill="none" stroke="#808080" stroke-miterlimit="10" cx="17.547" cy="17.541" r="16.749"/>
</svg>
