<?xml version="1.0" encoding="UTF-8" standalone="no"?>
<svg width="35px" height="35px" viewBox="0 0 35 35" version="1.1" xmlns="http://www.w3.org/2000/svg" xmlns:xlink="http://www.w3.org/1999/xlink" xmlns:sketch="http://www.bohemiancoding.com/sketch/ns">
    <!-- Generator: Sketch 3.0.3 (7892) - http://www.bohemiancoding.com/sketch -->
    <title>css</title>
    <desc>Created with Sketch.</desc>
    <defs></defs>
    <g id="Current-Icons" stroke="none" stroke-width="1" fill="none" fill-rule="evenodd" sketch:type="MSPage">
        <g id="css" sketch:type="MSLayerGroup" transform="translate(0.500000, 0.500000)">
            <circle id="iconBorder" stroke="#808080" sketch:type="MSShapeGroup" cx="16.749" cy="16.749" r="16.749"></circle>
            <path d="M8.74609375,23.671875 L8.12890625,23.671875 C7.3789025,23.671875 6.83854332,23.4700541 6.5078125,23.0664062 C6.17708168,22.6627584 6.01171875,21.914068 6.01171875,20.8203125 L6.01171875,20.0703125 C6.01171875,19.0963493 5.88411586,18.4179707 5.62890625,18.0351562 C5.37369664,17.6523418 4.96224242,17.4609375 4.39453125,17.4609375 L4.39453125,16.1875 C4.96224242,16.1875 5.37369664,15.9960957 5.62890625,15.6132812 C5.88411586,15.2304668 6.01171875,14.5520882 6.01171875,13.578125 L6.01171875,12.8203125 C6.01171875,11.7317654 6.17708168,10.9856791 6.5078125,10.5820312 C6.83854332,10.1783834 7.3789025,9.9765625 8.12890625,9.9765625 L8.74609375,9.9765625 L8.74609375,11 L8.51171875,11 C8.02734133,11 7.69010512,11.1041656 7.5,11.3125 C7.30989488,11.5208344 7.21484375,12.0182252 7.21484375,12.8046875 L7.21484375,13.3046875 C7.21484375,14.3828179 7.089845,15.1770808 6.83984375,15.6875 C6.5898425,16.1979192 6.16536758,16.5755196 5.56640625,16.8203125 C6.16536758,17.0703138 6.5898425,17.4505183 6.83984375,17.9609375 C7.089845,18.4713567 7.21484375,19.2656196 7.21484375,20.34375 L7.21484375,20.84375 C7.21484375,21.6302123 7.30989488,22.1276031 7.5,22.3359375 C7.69010512,22.5442719 8.02734133,22.6484375 8.51171875,22.6484375 L8.74609375,22.6484375 L8.74609375,23.671875 Z M19.1992188,19.2109375 C19.4752618,19.2109375 19.7070303,19.3046866 19.8945312,19.4921875 C20.0820322,19.6796884 20.1757812,19.911457 20.1757812,20.1875 C20.1757812,20.4687514 20.0807301,20.7096344 19.890625,20.9101562 C19.7005199,21.1106781 19.4700534,21.2109375 19.1992188,21.2109375 C18.9335924,21.2109375 18.7070322,21.1106781 18.5195312,20.9101562 C18.3320303,20.7096344 18.2382812,20.4687514 18.2382812,20.1875 C18.2382812,19.9062486 18.3307282,19.673178 18.515625,19.4882812 C18.7005218,19.3033845 18.9283841,19.2109375 19.1992188,19.2109375 Z M16.0117188,19.2109375 C16.2877618,19.2109375 16.5195303,19.3046866 16.7070312,19.4921875 C16.8945322,19.6796884 16.9882812,19.911457 16.9882812,20.1875 C16.9882812,20.4687514 16.8932301,20.7096344 16.703125,20.9101562 C16.5130199,21.1106781 16.2825534,21.2109375 16.0117188,21.2109375 C15.7460924,21.2109375 15.5208343,21.1106781 15.3359375,20.9101562 C15.1510407,20.7096344 15.0585938,20.4687514 15.0585938,20.1875 C15.0585938,19.9062486 15.1497387,19.673178 15.3320312,19.4882812 C15.5143238,19.3033845 15.7408841,19.2109375 16.0117188,19.2109375 Z M12.7851562,19.2109375 C13.0559909,19.2109375 13.2864574,19.3046866 13.4765625,19.4921875 C13.6666676,19.6796884 13.7617188,19.911457 13.7617188,20.1875 C13.7617188,20.4687514 13.6666676,20.7096344 13.4765625,20.9101562 C13.2864574,21.1106781 13.0559909,21.2109375 12.7851562,21.2109375 C12.5143216,21.2109375 12.2864593,21.1106781 12.1015625,20.9101562 C11.9166657,20.7096344 11.8242188,20.4687514 11.8242188,20.1875 C11.8242188,19.9062486 11.9166657,19.673178 12.1015625,19.4882812 C12.2864593,19.3033845 12.5143216,19.2109375 12.7851562,19.2109375 Z M27.5664062,17.4609375 C27.0039034,17.4609375 26.5937513,17.6523418 26.3359375,18.0351562 C26.0781237,18.4179707 25.9492188,19.0963493 25.9492188,20.0703125 L25.9492188,20.8203125 C25.9492188,21.914068 25.7851579,22.6627584 25.4570312,23.0664062 C25.1289046,23.4700541 24.5898475,23.671875 23.8398438,23.671875 L23.2148438,23.671875 L23.2148438,22.6484375 L23.4570312,22.6484375 C23.9414087,22.6484375 24.2786449,22.5442719 24.46875,22.3359375 C24.6588551,22.1276031 24.7539062,21.6302123 24.7539062,20.84375 L24.7539062,20.34375 C24.7539062,19.2656196 24.878905,18.4713567 25.1289062,17.9609375 C25.3789075,17.4505183 25.8033824,17.0703138 26.4023438,16.8203125 C25.8033824,16.5755196 25.3789075,16.1979192 25.1289062,15.6875 C24.878905,15.1770808 24.7539062,14.3828179 24.7539062,13.3046875 L24.7539062,12.8046875 C24.7539062,12.0182252 24.6588551,11.5208344 24.46875,11.3125 C24.2786449,11.1041656 23.9414087,11 23.4570312,11 L23.2148438,11 L23.2148438,9.9765625 L23.8398438,9.9765625 C24.5898475,9.9765625 25.1289046,10.1783834 25.4570312,10.5820312 C25.7851579,10.9856791 25.9492188,11.7317654 25.9492188,12.8203125 L25.9492188,13.578125 C25.9492188,14.4583377 26.0638009,15.1132791 26.2929688,15.5429688 C26.5221366,15.9726584 26.9466115,16.1875 27.5664062,16.1875 L27.5664062,17.4609375 Z" id="{…}" fill="#808080" sketch:type="MSShapeGroup"></path>
        </g>
    </g>
</svg>