<?xml version="1.0" encoding="UTF-8" standalone="no"?>
<svg width="35px" height="35px" viewBox="0 0 35 35" version="1.1" xmlns="http://www.w3.org/2000/svg" xmlns:xlink="http://www.w3.org/1999/xlink" xmlns:sketch="http://www.bohemiancoding.com/sketch/ns">
    <!-- Generator: Sketch 3.0.3 (7892) - http://www.bohemiancoding.com/sketch -->
    <title>learning</title>
    <desc>Created with Sketch.</desc>
    <defs></defs>
    <g id="Current-Icons" stroke="none" stroke-width="1" fill="none" fill-rule="evenodd" sketch:type="MSPage">
        <g id="learning" sketch:type="MSLayerGroup" transform="translate(0.500000, 0.500000)">
            <circle id="iconBorder" stroke="#808080" sketch:type="MSShapeGroup" cx="16.749" cy="16.749" r="16.749"></circle>
            <path d="M22.9003562,25.4823011 L10.1004972,25.4823011 L10.1004972,16.2676826 L16.5063999,20.13068 L22.9003562,16.2710959 L22.9003562,25.4823011 L22.9003562,25.4823011 Z M16.5004267,7.61071124 L27.1243096,12.7251082 L16.5063999,19.1339977 L5.87654368,12.7246816 L16.5004267,7.61071124 L16.5004267,7.61071124 Z M28.9158632,12.6397759 L16.5004267,6.664375 L4.08413675,12.6402025 L5.83387748,13.6953376 L5.83387748,22.9223293 L6.68720142,22.9223293 L6.68720142,14.2098919 L9.24717322,15.7535549 L9.24717322,26.335625 L23.7536801,26.335625 L23.7536801,15.7561149 L28.9158632,12.6397759 L28.9158632,12.6397759 Z" id="Academic-Hat" fill="#808080" sketch:type="MSShapeGroup"></path>
        </g>
    </g>
</svg>