<svg version="1.1" id="Layer_11" xmlns="http://www.w3.org/2000/svg" xmlns:xlink="http://www.w3.org/1999/xlink" x="0px" y="0px"
	 width="35px" height="35px" viewBox="0 0 35 35" enable-background="new 0 0 35 35" xml:space="preserve">
<path fill="#808080" d="M16.082,24.472V10.61l6.931,6.931L16.082,24.472z"/>
<circle fill="none" stroke="#808080" stroke-miterlimit="10" cx="17.547" cy="17.541" r="16.749"/>
</svg>
