<?xml version="1.0" encoding="UTF-8" standalone="no"?>
<svg width="35px" height="35px" viewBox="0 0 35 35" version="1.1" xmlns="http://www.w3.org/2000/svg" xmlns:xlink="http://www.w3.org/1999/xlink" xmlns:sketch="http://www.bohemiancoding.com/sketch/ns">
    <!-- Generator: Sketch 3.0.3 (7892) - http://www.bohemiancoding.com/sketch -->
    <title>videos</title>
    <desc>Created with Sketch.</desc>
    <defs></defs>
    <g id="Current-Icons" stroke="none" stroke-width="1" fill="none" fill-rule="evenodd" sketch:type="MSPage">
        <g id="videos" sketch:type="MSLayerGroup" transform="translate(0.500000, 0.500000)">
            <circle id="iconBorder" stroke="#808080" sketch:type="MSShapeGroup" cx="16.749" cy="16.749" r="16.749"></circle>
            <path d="M7.522,9.844 L7.522,23.238 L25.574,23.238 L25.574,9.844 L7.522,9.844 L7.522,9.844 Z M20.392,11.002 L21.908,11.002 L21.908,12.022 L20.392,12.022 L20.392,11.002 L20.392,11.002 Z M14.453,11.002 L15.969,11.002 L15.969,12.022 L14.453,12.022 L14.453,11.002 L14.453,11.002 Z M8.486,11.002 L10.002,11.002 L10.002,12.022 L8.486,12.022 L8.486,11.002 L8.486,11.002 Z M10.002,22.081 L8.486,22.081 L8.486,21.062 L10.002,21.062 L10.002,22.081 L10.002,22.081 Z M12.675,22.081 L11.159,22.081 L11.159,21.062 L12.675,21.062 L12.675,22.081 L12.675,22.081 Z M12.675,19.959 L8.486,19.959 L8.486,13.152 L12.675,13.152 L12.675,19.959 L12.675,19.959 Z M12.675,12.021 L11.159,12.021 L11.159,11.001 L12.675,11.001 L12.675,12.021 L12.675,12.021 Z M15.969,22.081 L14.453,22.081 L14.453,21.062 L15.969,21.062 L15.969,22.081 L15.969,22.081 Z M18.642,22.081 L17.126,22.081 L17.126,21.062 L18.642,21.062 L18.642,22.081 L18.642,22.081 Z M18.642,19.959 L14.453,19.959 L14.453,13.152 L18.642,13.152 L18.642,19.959 L18.642,19.959 Z M18.642,12.021 L17.126,12.021 L17.126,11.001 L18.642,11.001 L18.642,12.021 L18.642,12.021 Z M21.908,22.081 L20.392,22.081 L20.392,21.062 L21.908,21.062 L21.908,22.081 L21.908,22.081 Z M24.581,22.081 L23.065,22.081 L23.065,21.062 L24.581,21.062 L24.581,22.081 L24.581,22.081 Z M24.581,19.959 L20.392,19.959 L20.392,13.152 L24.581,13.152 L24.581,19.959 L24.581,19.959 Z M24.581,12.021 L23.065,12.021 L23.065,11.001 L24.581,11.001 L24.581,12.021 L24.581,12.021 Z" id="video" fill="#808080" sketch:type="MSShapeGroup"></path>
        </g>
    </g>
</svg>