<?xml version="1.0" encoding="UTF-8" standalone="no"?>
<svg width="35px" height="35px" viewBox="0 0 35 35" version="1.1" xmlns="http://www.w3.org/2000/svg" xmlns:xlink="http://www.w3.org/1999/xlink" xmlns:sketch="http://www.bohemiancoding.com/sketch/ns">
    <!-- Generator: Sketch 3.0.3 (7892) - http://www.bohemiancoding.com/sketch -->
    <title>audio</title>
    <desc>Created with Sketch.</desc>
    <defs></defs>
    <g id="Current-Icons" stroke="none" stroke-width="1" fill="none" fill-rule="evenodd" sketch:type="MSPage">
        <g id="audio" sketch:type="MSLayerGroup" transform="translate(0.500000, 0.500000)">
            <circle id="iconBorder" stroke="#808080" sketch:type="MSShapeGroup" cx="16.749" cy="16.749" r="16.749"></circle>
            <path d="M16.296,16.531 L16.296,12.557 C16.296,12.557 13.771,14.404 13.609,14.553 C13.447,14.702 13.335,14.653 13.335,14.653 C13.335,14.653 11.529,14.641 11.18,14.641 C10.832,14.641 10.906,14.815 10.906,14.815 L10.906,16.519 L10.906,18.223 C10.906,18.223 10.831,18.397 11.18,18.397 C11.528,18.397 13.335,18.409 13.335,18.409 C13.335,18.409 13.447,18.359 13.609,18.509 C13.771,18.658 16.296,20.505 16.296,20.505 L16.296,16.531 L16.296,16.531 Z" id="Shape" fill="#808080" sketch:type="MSShapeGroup"></path>
            <path d="M17.066,15.134 C17.74,15.239 18.256,15.822 18.256,16.526 C18.256,17.207 17.773,17.775 17.131,17.906" id="Shape" stroke="#808080" sketch:type="MSShapeGroup"></path>
            <path d="M17.814,13.359 C19.17,13.773 20.156,15.034 20.156,16.525 C20.156,17.953 19.251,19.17 17.983,19.634" id="Shape" stroke="#808080" sketch:type="MSShapeGroup"></path>
            <path d="M18.83,11.559 C20.801,12.347 22.193,14.273 22.193,16.525 C22.193,18.73 20.858,20.623 18.952,21.44" id="Shape" stroke="#808080" sketch:type="MSShapeGroup"></path>
        </g>
    </g>
</svg>