<?xml version="1.0" encoding="UTF-8" standalone="no"?>
<svg width="35px" height="35px" viewBox="0 0 35 35" version="1.1" xmlns="http://www.w3.org/2000/svg" xmlns:xlink="http://www.w3.org/1999/xlink" xmlns:sketch="http://www.bohemiancoding.com/sketch/ns">
    <!-- Generator: Sketch 3.0.3 (7892) - http://www.bohemiancoding.com/sketch -->
    <title>javascript</title>
    <desc>Created with Sketch.</desc>
    <defs></defs>
    <g id="Current-Icons" stroke="none" stroke-width="1" fill="none" fill-rule="evenodd" sketch:type="MSPage">
        <g id="javascript" sketch:type="MSLayerGroup" transform="translate(0.500000, 0.500000)">
            <circle id="iconBorder" stroke="#808080" sketch:type="MSShapeGroup" cx="16.749" cy="16.749" r="16.749"></circle>
            <path d="M13.6015625,9.78125 C13.8307303,9.78125 14.0260409,9.86328043 14.1875,10.0273438 C14.3489591,10.1914071 14.4296875,10.3880197 14.4296875,10.6171875 C14.4296875,10.856772 14.3502612,11.0572909 14.1914062,11.21875 C14.0325513,11.3802091 13.8359387,11.4609375 13.6015625,11.4609375 C13.3880198,11.4609375 13.1992196,11.3763029 13.0351562,11.2070312 C12.8710929,11.0377596 12.7890625,10.841147 12.7890625,10.6171875 C12.7890625,10.393228 12.8710929,10.1979175 13.0351562,10.03125 C13.1992196,9.8645825 13.3880198,9.78125 13.6015625,9.78125 L13.6015625,9.78125 Z M14.1953125,21.4140625 C14.1953125,22.4349009 14.019533,23.15755 13.6679688,23.5820312 C13.3164045,24.0065125 12.7031294,24.21875 11.828125,24.21875 C11.2656222,24.21875 10.6406284,24.1119802 9.953125,23.8984375 L10.2734375,22.90625 C10.8515654,23.0729175 11.3697894,23.15625 11.828125,23.15625 C12.2656272,23.15625 12.5664054,23.0325533 12.7304688,22.7851562 C12.8945321,22.5377592 12.9765625,22.0390663 12.9765625,21.2890625 L12.9765625,13.9140625 L10.578125,13.9140625 L10.578125,12.859375 L14.1953125,12.859375 L14.1953125,21.4140625 Z M23.6015625,14.0234375 C22.9192674,13.799478 22.2760447,13.6875 21.671875,13.6875 C21.0104134,13.6875 20.4869811,13.798176 20.1015625,14.0195312 C19.7161439,14.2408865 19.5234375,14.5364565 19.5234375,14.90625 C19.5234375,15.1406262 19.6119783,15.3450512 19.7890625,15.5195312 C19.9661467,15.6940113 20.3203098,15.8567701 20.8515625,16.0078125 L22.015625,16.34375 C22.552086,16.4947924 22.9895816,16.6757802 23.328125,16.8867188 C23.6666684,17.0976573 23.9205721,17.3528631 24.0898438,17.6523438 C24.2591154,17.9518244 24.34375,18.2994772 24.34375,18.6953125 C24.34375,19.471358 24.0182324,20.0846332 23.3671875,20.5351562 C22.7161426,20.9856793 21.8880259,21.2109375 20.8828125,21.2109375 C19.8828075,21.2109375 19.0572949,21.0598973 18.40625,20.7578125 L18.640625,19.703125 C19.3229201,20.0260433 20.0546836,20.1875 20.8359375,20.1875 C21.5130242,20.1875 22.0638,20.0611992 22.4882812,19.8085938 C22.9127625,19.5559883 23.125,19.2213562 23.125,18.8046875 C23.125,18.5234361 23.0195323,18.2721365 22.8085938,18.0507812 C22.5976552,17.829426 22.1015664,17.5989595 21.3203125,17.359375 C20.690101,17.1666657 20.226564,17.0221359 19.9296875,16.9257812 C19.632811,16.8294266 19.3567721,16.6875009 19.1015625,16.5 C18.8463529,16.3124991 18.6523444,16.088543 18.5195312,15.828125 C18.3867181,15.567707 18.3203125,15.2760433 18.3203125,14.953125 C18.3203125,14.2499965 18.6276011,13.6927104 19.2421875,13.28125 C19.8567739,12.8697896 20.6718699,12.6640625 21.6875,12.6640625 C22.3437533,12.6640625 23.0729127,12.7760405 23.875,13 L23.6015625,14.0234375 Z" id="js" fill="#808080" sketch:type="MSShapeGroup"></path>
        </g>
    </g>
</svg>