<?xml version="1.0" encoding="UTF-8" standalone="no"?>
<svg width="35px" height="35px" viewBox="0 0 35 35" version="1.1" xmlns="http://www.w3.org/2000/svg" xmlns:xlink="http://www.w3.org/1999/xlink" xmlns:sketch="http://www.bohemiancoding.com/sketch/ns">
    <!-- Generator: Sketch 3.0.3 (7892) - http://www.bohemiancoding.com/sketch -->
    <title>programming</title>
    <desc>Created with Sketch.</desc>
    <defs></defs>
    <g id="Current-Icons" stroke="none" stroke-width="1" fill="none" fill-rule="evenodd" sketch:type="MSPage">
        <g id="programming" sketch:type="MSLayerGroup" transform="translate(0.500000, 0.500000)">
            <circle id="iconBorder" stroke="#808080" sketch:type="MSShapeGroup" cx="17.199" cy="16.749" r="16.749"></circle>
            <path d="M23.51,21.41 C21.0782,21.41 19.1,19.4318 19.1,17 C19.1,14.56862 21.0782,12.59042 23.51,12.59042 C25.9418,12.59042 27.92,14.56862 27.92,17 C27.92,19.4318 25.9418,21.41 23.51,21.41 L23.51,21.41 Z M10.49,21.41 C8.0582,21.41 6.08,19.4318 6.08,17 C6.08,14.5682 8.0582,12.59 10.49,12.59 C12.9218,12.59 14.9,14.5682 14.9,17 C14.9,19.4318 12.9218,21.41 10.49,21.41 L10.49,21.41 Z M28.97,16.37042 L28.71884,16.37042 C28.4072,13.76852 26.1959,11.75042 23.51,11.75042 C21.01478,11.75042 18.93032,13.493 18.3965,15.8261 L17.19446,15.1982 C17.07308,15.1352 16.92692,15.1352 16.80554,15.1982 L15.6035,15.8261 C15.0701,13.49258 12.98564,11.75 10.49,11.75 C7.8041,11.75 5.59322,13.7681 5.28158,16.37 L5.03,16.37 C4.68224,16.37 4.4,16.65224 4.4,17.00042 C4.4,17.34776 4.68224,17.63 5.03,17.63 L5.28158,17.63 C5.59322,20.23232 7.8041,22.25 10.49,22.25 C13.38968,22.25 15.74,19.9001 15.74,17 C15.74,16.90256 15.73076,16.8068 15.7253,16.71062 L17,16.0445 L18.2747,16.71062 C18.26966,16.8068 18.26,16.90256 18.26,17 C18.26,19.89968 20.61074,22.25 23.51,22.25 C26.1959,22.25 28.40636,20.23232 28.71884,17.63042 L28.97,17.63042 C29.31776,17.63042 29.6,17.34818 29.6,17.00042 C29.6,16.65266 29.31776,16.37042 28.97,16.37042 L28.97,16.37042 Z" id="Reading-List" fill="#808080" sketch:type="MSShapeGroup"></path>
        </g>
    </g>
</svg>