<?xml version="1.0" encoding="UTF-8" standalone="no"?>
<svg width="35px" height="35px" viewBox="0 0 35 35" version="1.1" xmlns="http://www.w3.org/2000/svg" xmlns:xlink="http://www.w3.org/1999/xlink" xmlns:sketch="http://www.bohemiancoding.com/sketch/ns">
    <!-- Generator: Sketch 3.0.3 (7892) - http://www.bohemiancoding.com/sketch -->
    <title>rss</title>
    <desc>Created with Sketch.</desc>
    <defs></defs>
    <g id="Current-Icons" stroke="none" stroke-width="1" fill="none" fill-rule="evenodd" sketch:type="MSPage">
        <g id="rss" sketch:type="MSLayerGroup" transform="translate(0.500000, 0.500000)">
            <circle id="iconBorder" stroke="#808080" sketch:type="MSShapeGroup" cx="16.749" cy="16.749" r="16.749"></circle>
            <path d="M10.16,25.32 C11.3529351,25.32 12.32,24.3529351 12.32,23.16 C12.32,21.9670649 11.3529351,21 10.16,21 C8.96706494,21 8,21.9670649 8,23.16 C8,24.3529351 8.96706494,25.32 10.16,25.32 Z M16.937,24.957 C16.676,16.666 8.584,16.148 8.239,16.129 L8.347,13.899 C8.452,13.904 18.841,14.514 19.169,24.886 L16.937,24.957 Z M22.624,24.957 C22.191,11.217 8.81,10.385 8.24,10.357 L8.347,8.126 C8.507,8.134 24.357,9.065 24.855,24.887 L22.624,24.957 Z" id="Rss" fill="#808080" sketch:type="MSShapeGroup"></path>
        </g>
    </g>
</svg>