<?xml version="1.0" encoding="utf-8"?>
<!-- Generator: Adobe Illustrator 16.0.0, SVG Export Plug-In . SVG Version: 6.00 Build 0)  -->
<!DOCTYPE svg PUBLIC "-//W3C//DTD SVG 1.1//EN" "http://www.w3.org/Graphics/SVG/1.1/DTD/svg11.dtd">
<svg version="1.1" id="Layer_1" xmlns="http://www.w3.org/2000/svg" xmlns:xlink="http://www.w3.org/1999/xlink" x="0px" y="0px"
	 width="40px" height="40px" viewBox="0 0 40 40" enable-background="new 0 0 40 40" xml:space="preserve">
<path fill="#808080" d="M12.175,13.631v11.996h16.167V13.631H12.175z M23.701,14.668h1.357v0.913h-1.357V14.668z M18.383,14.668
	h1.357v0.913h-1.357V14.668z M13.039,14.668h1.357v0.913h-1.357V14.668z M14.396,24.59h-1.357v-0.913h1.357V24.59z M16.791,24.59
	h-1.357v-0.913h1.357V24.59z M16.791,22.689h-3.751v-6.096h3.751V22.689z M16.791,15.581h-1.357v-0.913h1.357V15.581z M19.74,24.59
	h-1.357v-0.913h1.357V24.59z M22.135,24.59h-1.358v-0.913h1.358V24.59z M22.135,22.689h-3.752v-6.096h3.752V22.689z M22.135,15.581
	h-1.358v-0.913h1.358V15.581z M25.059,24.59h-1.357v-0.913h1.357V24.59z M27.453,24.59h-1.357v-0.913h1.357V24.59z M27.453,22.689
	h-3.752v-6.096h3.752V22.689z M27.453,15.581h-1.357v-0.913h1.357V15.581z"/>
</svg>
